%YAML 1.1
%TAG !u! tag:unity3d.com,2011:
--- !u!114 &11400000
MonoBehaviour:
  m_ObjectHideFlags: 0
  m_CorrespondingSourceObject: {fileID: 0}
  m_PrefabInstance: {fileID: 0}
  m_PrefabAsset: {fileID: 0}
  m_GameObject: {fileID: 0}
  m_Enabled: 1
  m_EditorHideFlags: 0
  m_Script: {fileID: 11500000, guid: 57022ef637e240b5af3d95cd51ff6b6f, type: 3}
  m_Name: 1_2
  m_EditorClassIdentifier: 
  prizeCount: 2
  CardPrizeVector: 1
  Text: "\u041E\u0431\u0435\u0437\u0432\u043E\u0436\u0438\u0432\u0430\u043D\u0438\u0435"
  ProductionType: 1
